[gst-main] root@guri:~/libcamera/build/src/cam# gst-launch-1.0 v4l2src num-buffers=10000 device=$DEV norm=PAL ! video/x-raw,interlace-mode=\(string\)interleaved ! avimux ! fakesink > /dev/null &                                      cat /sys/kernel/debug/usb/stkvideo/dafna/stats 
[ 3390.086638] stk_video_stats_dump is_noncont = 1
noncont: uS/qty: 28562/251 sec: 28.562565 avg: 113.795 min: 0.584 max: 177.045 (uS)
raw decode speed: 13.917 Gbits/s
bytes 48711064.000 
[gst-main] root@guri:~/libcamera/build/src/cam# cat /sys/kernel/debug/usb/stkvideo/dafna/stats 
[ 3402.755672] stk_video_stats_dump is_noncont = 1
noncont: uS/qty: 210576/1834 sec: 210.576421 avg: 114.818 min: 0.584 max: 177.045 (uS)
raw decode speed: 11.859 Gbits/s
bytes 311318808.000 
[gst-main] root@guri:~/libcamera/build/src/cam# cat /sys/kernel/debug/usb/stkvideo/dafna/stats 
[ 3406.883582] stk_video_stats_dump is_noncont = 1
noncont: uS/qty: 270628/2350 sec: 270.628800 avg: 115.161 min: 0.584 max: 177.045 (uS)
raw decode speed: 11.760 Gbits/s
bytes 396930628.000 
[gst-main] root@guri:~/libcamera/build/src/cam# cat /sys/kernel/debug/usb/stkvideo/dafna/stats 
[ 3408.932495] stk_video_stats_dump is_noncont = 1
noncont: uS/qty: 299324/2606 sec: 299.324076 avg: 114.859 min: 0.584 max: 177.045 (uS)
raw decode speed: 11.755 Gbits/s
bytes 439375398.000 
[gst-main] root@guri:~/libcamera/build/src/cam# cat /sys/kernel/debug/usb/stkvideo/dafna/stats 
[ 3418.121914] stk_video_stats_dump is_noncont = 1
noncont: uS/qty: 429165/3755 sec: 429.165712 avg: 114.291 min: 0.584 max: 177.045 (uS)
raw decode speed: 11.748 Gbits/s
bytes 630001944.000 
[gst-main] root@guri:~/libcamera/build/src/cam# cat /sys/kernel/debug/usb/stkvideo/dafna/stats 
[ 3418.813152] stk_video_stats_dump is_noncont = 1
noncont: uS/qty: 439478/3842 sec: 439.478361 avg: 114.387 min: 0.584 max: 177.045 (uS)
raw decode speed: 11.743 Gbits/s
bytes 644426908.000 
[gst-main] root@guri:~/libcamera/build/src/cam# cat /sys/kernel/debug/usb/stkvideo/dafna/stats 
[ 3419.451263] stk_video_stats_dump is_noncont = 1
noncont: uS/qty: 448691/3921 sec: 448.691698 avg: 114.432 min: 0.584 max: 177.045 (uS)
raw decode speed: 11.741 Gbits/s
bytes 657517980.000 
[gst-main] root@guri:~/libcamera/build/src/cam# cat /sys/kernel/debug/usb/stkvideo/dafna/stats 
[ 3471.418333] stk_video_stats_dump is_noncont = 1
noncont: uS/qty: 1181707/10417 sec: 1181.707657 avg: 113.440 min: 0.584 max: 180.253 (uS)
raw decode speed: 11.753 Gbits/s
bytes 1.661394584 G
[gst-main] root@guri:~/libcamera/build/src/cam# cat /sys/kernel/debug/usb/stkvideo/dafna/stats 
[ 3483.924428] stk_video_stats_dump is_noncont = 1
noncont: uS/qty: 1358448/11980 sec: 1358.448995 avg: 113.393 min: 0.584 max: 180.253 (uS)
raw decode speed: 11.746 Gbits/s
bytes 1.920269424 G
[gst-main] root@guri:~/libcamera/build/src/cam# cat /sys/kernel/debug/usb/stkvideo/dafna/stats 
[ 3484.688166] stk_video_stats_dump is_noncont = 1
noncont: uS/qty: 1369806/12076 sec: 1369.806697 avg: 113.432 min: 0.584 max: 180.253 (uS)
raw decode speed: 11.745 Gbits/s
bytes 1.936173350 G
[gst-main] root@guri:~/libcamera/build/src/cam# cat /sys/kernel/debug/usb/stkvideo/dafna/stats 
[ 3559.453478] stk_video_stats_dump is_noncont = 1
noncont: uS/qty: 2474771/21422 sec: 2474.771948 avg: 115.524 min: 0.584 max: 193.961 (uS)
raw decode speed: 11.512 Gbits/s
bytes 3.339087320 G
[gst-main] root@guri:~/libcamera/build/src/cam# ps aux | grep launch
root         813  0.7  0.5 239784 10532 ttyS2    Sl   18:01   0:02 gst-launch-1.0 v4l2src num-buffers=10000 device=/dev/video0 norm=PAL ! video/x-raw,interlace-mode=(string)interleaved ! avimux ! fakesink
root         834  0.0  0.0   4828   832 ttyS2    S+   18:06   0:00 grep launch
[gst-main] root@guri:~/libcamera/build/src/cam# cat /sys/kernel/debug/usb/stkvideo/dafna/stats 
[ 3675.041998] stk_video_stats_dump is_noncont = 1
noncont: uS/qty: 4152939/35870 sec: 4152.939409 avg: 115.777 min: 0.584 max: 199.504 (uS)
raw decode speed: 11.477 Gbits/s
bytes 5.588352564 G
[gst-main] root@guri:~/libcamera/build/src/cam# cat /sys/kernel/debug/usb/stkvideo/dafna/stats 
[ 3934.313788] stk_video_stats_dump is_noncont = 1
noncont: uS/qty: 5807945/50013 sec: 5807.945212 avg: 116.128 min: 0.584 max: 202.420 (uS)
raw decode speed: 11.438 Gbits/s
bytes 7.786986560 G
[1]+  Done                    gst-launch-1.0 v4l2src num-buffers=10000 device=$DEV norm=PAL ! video/x-raw,interlace-mode=\(string\)interleaved ! avimux ! fakesink > /dev/null

